Student_ID,Major,Standing,Grade,Prerequisites,Letters
00101,Computer Science,Junior,82,Y,A
34343,Computer Science,Freshman,80,Y,A
00105,Economics,Sophomore,95,Y,A
00107,Computer Science,Junior,84,N,B
00217,Social Science,Freshman,83,N,B
00218,Computer Science,Sophmore,76,N,D
01005,Biology,Freshman,92,Y,A
01702,Chemistry,Junior,93,Y,A
01802,Physics,Senior,86,Y,B
02001,History,Freshman,68,N,C
04001,Art,Senior,74,N,C
00501,Philosophy,Senior,89,N,B
02449,Physics,Junior,87,Y,B
01111,Astronomy,Junior,99,N,A
02222,Computer Science,Senior,72,Y,A
03333,Physics,Sophomore,50,N,F
04444,Informatics,Freshman,80,Y,B
12344,Informatics,Junior,87,N,A
97744,Informatics,Junior,88,Y,A
93744,Informatics,Sophomore,89,N,B
83444,Informatics,Sophomore,78,Y,B
99844,Informatics,Senior,62,Y,B
39844,Informatics,Senior,63,Y,B
05555,Chemistry,Senior,66,N,C
06666,Environmental Engineering,Freshman,93,N,A
07777,Chinese,Senior,78,N,C
08888,Business,Sophomore,85,Y,B
09999,Public Health,Junior,65,N,C
10101,Political Science,Junior,71,Y,C
11111,Aerospace,Senior,94,N,A
34431,Computer Science,Freshman,98,Y,C
33122,Computer Science,Freshman,87,Y,B
33411,Economics,Sophomore,95,Y,A
10107,Computer Science,Junior,78,N,C
20217,Social Science,Freshman,83,N,B
30218,Computer Science,Senior,76,N,C
41005,Biology,Freshman,92,Y,A
51702,Chemistry,Junior,93,Y,A
61802,Physics,Senior,86,Y,B
82001,History,Freshman,68,N,A
94001,Art,Senior,74,N,C
30501,Philosophy,Senior,89,N,B
32449,Physics,Junior,87,Y,B
11111,Astronomy,Junior,92,N,A
11222,Computer Science,Senior,80,Y,C
33333,Physics,Sophomore,40,N,F
15555,Chemistry,Junior,87,N,B
06666,Environmental Engineering,Freshman,65,N,A
97777,Chinese,Freshman,95,N,A
28888,Business,Junior,99,Y,B
09999,Public Health,Senior,65,N,D
10101,Political Science,Freshman,71,Y,F
11111,Aerospace,Junior,94,N,A
