Student_ID,Major,Standing,Grade,Prerequisites,Letters
00101,Computer Science,Junior,82,Y,B
34343,Computer Science,Freshman,80,Y,A
00105,Economics,Sophomore,95,Y,A
00107,Computer Science,Junior,84,N,B
00217,Social Science,Freshman,83,N,B
00218,Computer Science,Senior,76,N,C
01005,Biology,Freshman,92,Y,A
01702,Chemistry,Junior,93,Y,A
01802,Physics,Senior,86,Y,B
02001,Medieval History,Freshman,68,N,D
04001,Art,Senior,74,N,C
00501,Social Science,Senior,89,N,B
02449,Physics,Junior,87,Y,B
01111,Geology,Junior,99,N,A
02222,Computer Science,Senior,72,Y,C
03333,Physics,Sophomore,50,N,F
04444,Informatics,Freshman,80,Y,B
05555,Chemistry,Senior,66,N,D
06666,Environmental Engineering,Freshman,93,N,A
07777,French,Senior,78,N,C
08888,Business,Sophomore,85,Y,B
09999,Public Health,Junior,65,N,D
10101,Political Science,Junior,71,Y,C
11111,Musical Performance,Senior,94,N,A
